<?xml version="1.0" encoding="utf-8"?>
<!-- Generator: Adobe Illustrator 16.0.4, SVG Export Plug-In . SVG Version: 6.00 Build 0)  -->
<!DOCTYPE svg PUBLIC "-//W3C//DTD SVG 1.1//EN" "http://www.w3.org/Graphics/SVG/1.1/DTD/svg11.dtd">
<svg version="1.1" id="Layer_1" xmlns="http://www.w3.org/2000/svg" xmlns:xlink="http://www.w3.org/1999/xlink" x="0px" y="0px"
	 width="100px" height="100px" viewBox="0 0 100 100" style="enable-background:new 0 0 100 100;" xml:space="preserve">
<style type="text/css">
<![CDATA[
	.st0{fill-rule:evenodd;clip-rule:evenodd;fill:#768367;}
	.st1{clip-path:url(#SVGID_2_);}
	.st2{clip-path:url(#SVGID_4_);}
	.st3{clip-path:url(#SVGID_6_);}
	.st4{fill:#FFDB7C;}
	.st5{fill:none;}
	.st6{fill:none;stroke:#768367;stroke-width:2.7765;stroke-linecap:round;stroke-linejoin:round;stroke-miterlimit:10;}
	.st7{fill:#768367;}
]]>
</style>
<g>
	<path class="st4" d="M81.7,55.2H69.5L65.9,40c0-3.5-2.9-6.4-6.4-6.4h-7.1H25.2h-7.1c-3.5,0-6.4,2.9-6.4,6.4L8.3,55.2
		C2.8,55.6,0,63.3,0,68.9V73c0,5.8,3.2,4.9,9.1,4.9h7.6c0-0.2,0-0.5,0-0.7c0-6,4.9-10.9,10.9-10.9c6,0,10.9,4.9,10.9,10.9
		c0,0.3,0,0.5,0,0.7H64c0.3-5.8,5-10.4,10.8-10.4c5.8,0,10.6,4.6,10.8,10.4c2.3,0,4.4,0,6.1,0V60.1C90.4,55.9,86.4,55.2,81.7,55.2z"
		/>
	<g>
		<g>
			<path class="st4" d="M47.8,21.7c-0.7,0-1.2-0.5-1.2-1.2v-6.6c0-0.7,0.5-1.2,1.2-1.2c0.7,0,1.2,0.5,1.2,1.2v6.6
				C49,21.1,48.4,21.7,47.8,21.7z"/>
		</g>
		<g>
			<path class="st4" d="M36,23.7c-0.5,0-0.9-0.3-1.1-0.7l-2.5-6.1c-0.3-0.6,0-1.3,0.6-1.6c0.6-0.3,1.3,0,1.6,0.6l2.5,6.1
				c0.3,0.6,0,1.3-0.6,1.6C36.3,23.6,36.2,23.7,36,23.7z"/>
		</g>
		<g>
			<path class="st4" d="M25.9,30c-0.3,0-0.6-0.1-0.8-0.4L20.4,25c-0.5-0.5-0.5-1.2,0-1.7c0.5-0.5,1.2-0.5,1.7,0l4.7,4.7
				c0.5,0.5,0.5,1.2,0,1.7C26.5,29.9,26.2,30,25.9,30z"/>
		</g>
		<g>
			<path class="st4" d="M75.5,41.4c-0.5,0-0.9-0.3-1.1-0.7c-0.3-0.6,0-1.3,0.6-1.6l6.1-2.5c0.6-0.3,1.3,0,1.6,0.6
				c0.3,0.6,0,1.3-0.6,1.6l-6.1,2.5C75.8,41.3,75.6,41.4,75.5,41.4z"/>
		</g>
		<g>
			<path class="st4" d="M69.1,31.3c-0.3,0-0.6-0.1-0.8-0.4c-0.5-0.5-0.5-1.2,0-1.7l4.7-4.7c0.5-0.5,1.2-0.5,1.7,0
				c0.5,0.5,0.5,1.2,0,1.7L70,30.9C69.7,31.1,69.4,31.3,69.1,31.3z"/>
		</g>
		<g>
			<path class="st4" d="M59.4,24.3c-0.2,0-0.3,0-0.5-0.1c-0.6-0.3-0.9-1-0.6-1.6l2.5-6.1c0.3-0.6,1-0.9,1.6-0.6
				c0.6,0.3,0.9,1,0.6,1.6l-2.5,6.1C60.3,24.1,59.9,24.3,59.4,24.3z"/>
		</g>
	</g>
	<circle class="st6" cx="74.6" cy="77" r="10.4"/>
	<g>
		<defs>
			<circle id="SVGID_1_" cx="74.6" cy="77" r="10.4"/>
		</defs>
		<clipPath id="SVGID_2_">
			<use xlink:href="#SVGID_1_"  style="overflow:visible;"/>
		</clipPath>
		<g class="st1">
			<path class="st0" d="M65.1,68.6c0.2-0.1,0.3,0.1,0.4,0.2c0,0.4-0.6,0.5-0.6,0C64.9,68.7,64.9,68.6,65.1,68.6z"/>
			<path class="st0" d="M70.1,68.6c0.2-0.1,0.3,0.1,0.4,0.2c0,0.4-0.6,0.5-0.6,0C69.9,68.7,70,68.6,70.1,68.6z"/>
			<path class="st0" d="M60.1,68.7c0.1,0,0.2,0,0.2,0.1c0.2,0.3-0.3,0.4-0.3,0.1C59.9,68.8,59.9,68.7,60.1,68.7z"/>
			<path class="st0" d="M75.2,68.7c0.1,0,0.2,0,0.2,0.1c0.2,0.3-0.3,0.4-0.3,0.1C75.1,68.8,75.1,68.7,75.2,68.7z"/>
			<path class="st0" d="M67.6,70.9c0.8-0.2,0.7,1.1,0,0.9C67.2,71.8,67,71,67.6,70.9z"/>
			<path class="st0" d="M62.6,71c0.6-0.1,0.6,0.8,0.1,0.8C62.2,71.7,62.1,71,62.6,71z"/>
			<path class="st0" d="M72.7,71c0.6-0.1,0.6,0.8,0.1,0.8C72.3,71.8,72.2,71.1,72.7,71z"/>
			<path class="st0" d="M57.5,71.1c0.2-0.1,0.3,0,0.3,0.1c0.1,0.4-0.6,0.5-0.5,0C57.4,71.2,57.4,71.1,57.5,71.1z"/>
			<path class="st0" d="M77.7,71.1c0.2-0.1,0.3,0,0.3,0.1c0.1,0.4-0.6,0.5-0.5,0C77.5,71.2,77.6,71.2,77.7,71.1z"/>
			<path class="st0" d="M65,73.3c0.4-0.1,0.7,0.2,0.8,0.5c0.2,1-1.4,1-1.3,0C64.6,73.5,64.8,73.3,65,73.3z"/>
			<path class="st0" d="M70.1,73.3c0.4-0.1,0.7,0.2,0.8,0.5c0.2,1-1.4,1-1.3,0C69.6,73.5,69.8,73.3,70.1,73.3z"/>
			<path class="st0" d="M60,73.4c0.7-0.2,0.8,0.8,0.2,0.9C59.6,74.5,59.3,73.5,60,73.4z"/>
			<path class="st0" d="M75.1,73.4c0.7-0.2,0.8,0.8,0.2,0.9C74.8,74.5,74.5,73.6,75.1,73.4z"/>
			<path class="st0" d="M55,73.6c0.2-0.1,0.3,0,0.3,0.1c0.1,0.4-0.6,0.5-0.5,0C54.8,73.7,54.9,73.7,55,73.6z"/>
			<path class="st0" d="M80.2,73.7c0.2-0.1,0.3,0,0.3,0.1c0.1,0.4-0.6,0.5-0.5,0C80.1,73.7,80.1,73.7,80.2,73.7z"/>
			<path class="st0" d="M67.5,75.6c0.6-0.1,1.1,0.3,1,1c-0.2,0.9-1.8,0.8-1.6-0.4C66.9,75.9,67.2,75.7,67.5,75.6z"/>
			<path class="st0" d="M62.5,75.7c0.4-0.1,0.8,0.1,0.9,0.5c0.1,0.4-0.3,1-0.9,0.9C61.7,76.9,61.7,75.8,62.5,75.7z"/>
			<path class="st0" d="M72.6,75.7c0.4-0.1,0.8,0.1,0.9,0.5c0.1,0.4-0.3,1-0.9,0.9C71.8,77,71.8,75.9,72.6,75.7z"/>
			<path class="st0" d="M57.5,75.9c0.8-0.1,0.7,1,0.1,1C57,76.9,56.9,76,57.5,75.9z"/>
			<path class="st0" d="M77.7,75.9c0.8-0.1,0.7,1,0.1,1C77.2,77,77.1,76,77.7,75.9z"/>
			<path class="st0" d="M52.5,76.2c0.2,0,0.3,0,0.3,0.2C52.8,77,51.9,76.3,52.5,76.2z"/>
			<path class="st0" d="M82.8,76.2c0.2,0,0.3,0,0.3,0.2C83.1,77,82.2,76.4,82.8,76.2z"/>
			<path class="st0" d="M65.1,78c0.8-0.1,1.4,1,0.7,1.6c-0.6,0.6-1.6,0.2-1.7-0.7c0-0.3,0.1-0.6,0.3-0.7C64.6,78.1,64.7,78,65.1,78z
				"/>
			<path class="st0" d="M70.1,78c0.8-0.1,1.4,1,0.7,1.6c-0.6,0.6-1.6,0.2-1.7-0.7c0-0.3,0.1-0.6,0.3-0.7C69.6,78.1,69.8,78,70.1,78z
				"/>
			<path class="st0" d="M60,78.2c0.9-0.1,1.2,1.2,0.4,1.5c-0.6,0.2-1.3-0.3-1-1C59.5,78.4,59.6,78.2,60,78.2z"/>
			<path class="st0" d="M75.1,78.2c0.9-0.1,1.2,1.2,0.4,1.5c-0.6,0.2-1.3-0.3-1-1C74.6,78.4,74.8,78.2,75.1,78.2z"/>
			<path class="st0" d="M54.9,78.5c0.8-0.2,0.7,1.1,0,0.9C54.6,79.3,54.4,78.6,54.9,78.5z"/>
			<path class="st0" d="M80.2,78.5c0.8-0.2,0.7,1.1,0,0.9C79.8,79.3,79.6,78.6,80.2,78.5z"/>
			<path class="st0" d="M50,78.8c0.1,0,0.2,0,0.2,0.1c0.2,0.3-0.3,0.4-0.3,0.1C49.8,78.9,49.8,78.8,50,78.8z"/>
			<path class="st0" d="M85.3,78.8c0.1,0,0.2,0,0.2,0.1c0.2,0.3-0.3,0.4-0.3,0.1C85.2,78.9,85.2,78.8,85.3,78.8z"/>
			<path class="st0" d="M67.6,80.3c0.5,0,0.9,0.3,1,0.5c0.7,1.1-0.6,2.2-1.6,1.6c-0.1-0.1-0.3-0.3-0.3-0.3
				C66.2,81.3,66.8,80.4,67.6,80.3z"/>
			<path class="st0" d="M62.6,80.5c0.6,0,1.1,0.4,1.1,1c0,1.3-2,1.4-2,0C61.6,80.9,62,80.5,62.6,80.5z"/>
			<path class="st0" d="M72.7,80.5c0.6,0,1.1,0.4,1.1,1c0,1.3-2,1.4-2,0C71.7,80.9,72.1,80.5,72.7,80.5z"/>
			<path class="st0" d="M57.4,80.8c0.2,0,0.4,0,0.4,0c0.5,0.2,0.6,1.1,0,1.3c-0.4,0.2-0.8-0.1-0.9-0.4c0-0.1-0.1-0.3,0-0.6
				C56.9,81.1,57.1,80.8,57.4,80.8z"/>
			<path class="st0" d="M77.6,80.8c0.2,0,0.4,0,0.4,0c0.5,0.2,0.6,1.1,0,1.3c-0.4,0.2-0.8-0.1-0.9-0.4c0-0.1-0.1-0.3,0-0.6
				C77.1,81.1,77.3,80.8,77.6,80.8z"/>
			<path class="st0" d="M52.5,81.1c0.5-0.1,0.6,0.7,0.1,0.7C52.1,81.8,52,81.2,52.5,81.1z"/>
			<path class="st0" d="M82.8,81.1c0.5-0.1,0.6,0.7,0.1,0.7C82.4,81.9,82.3,81.2,82.8,81.1z"/>
			<path class="st0" d="M65,82.8c0.7-0.1,1.3,0.4,1.4,1c0.1,0.7-0.4,1.3-1.1,1.4c-0.7,0.1-1.5-0.4-1.4-1.4
				C64,83.3,64.4,82.9,65,82.8z"/>
			<path class="st0" d="M70,82.8c0.7-0.1,1.3,0.4,1.4,1c0.1,0.7-0.4,1.3-1,1.4c-0.7,0.1-1.5-0.4-1.4-1.4C69,83.3,69.4,82.9,70,82.8z
				"/>
			<path class="st0" d="M60,83.1c0.6-0.1,0.9,0.3,1,0.6c0.4,1.2-1.4,1.7-1.8,0.6C59,83.6,59.5,83.1,60,83.1z"/>
			<path class="st0" d="M75.1,83.1c0.6-0.1,0.9,0.3,1,0.6c0.4,1.2-1.4,1.7-1.8,0.6C74.1,83.6,74.6,83.1,75.1,83.1z"/>
			<path class="st0" d="M54.9,83.4c0.4-0.1,0.8,0.2,0.7,0.7c-0.1,0.7-1.3,0.6-1.2-0.3C54.5,83.7,54.6,83.5,54.9,83.4z"/>
			<path class="st0" d="M80.2,83.4c0.4-0.1,0.8,0.2,0.7,0.7c-0.1,0.7-1.3,0.6-1.2-0.3C79.7,83.7,79.9,83.5,80.2,83.4z"/>
			<path class="st0" d="M49.9,83.8c0.2,0,0.3,0,0.3,0.2C50.3,84.5,49.4,83.9,49.9,83.8z"/>
			<path class="st0" d="M85.3,83.8c0.2,0,0.3,0,0.3,0.2C85.6,84.5,84.7,83.9,85.3,83.8z"/>
			<path class="st0" d="M67.6,85.2c0.8-0.1,1.4,0.5,1.4,1.3c0,0.8-0.7,1.3-1.3,1.3c-0.8,0-1.3-0.6-1.3-1.3
				C66.3,85.8,66.9,85.3,67.6,85.2z"/>
			<path class="st0" d="M62.4,85.4c0.6-0.1,1,0.2,1.2,0.6c0.4,0.9-0.5,2-1.5,1.5c-0.4-0.2-0.8-0.8-0.5-1.5
				C61.7,85.8,62,85.5,62.4,85.4z"/>
			<path class="st0" d="M72.5,85.4c0.6-0.1,1,0.2,1.2,0.6c0.4,0.9-0.5,2-1.5,1.5c-0.4-0.2-0.8-0.8-0.5-1.5
				C71.8,85.9,72.1,85.5,72.5,85.4z"/>
			<path class="st0" d="M57.4,85.7c0.5-0.1,1.1,0.3,1,0.9c-0.2,0.8-1.4,0.7-1.5,0C56.7,86.2,57,85.8,57.4,85.7z"/>
			<path class="st0" d="M77.6,85.8c0.5-0.1,1.1,0.3,0.9,0.9c-0.2,0.8-1.4,0.7-1.5,0C76.9,86.2,77.2,85.8,77.6,85.8z"/>
			<path class="st0" d="M52.5,86.1c0.4-0.1,0.6,0.4,0.4,0.7C52.3,87.3,51.7,86.2,52.5,86.1z"/>
			<path class="st0" d="M82.7,86.1c0.4-0.1,0.6,0.4,0.4,0.7C82.6,87.3,82,86.2,82.7,86.1z"/>
			<path class="st0" d="M65.1,87.9c0.7,0,1.2,0.5,1.2,1.1c0,0.7-0.5,1.2-1.2,1.2c-0.7,0-1.2-0.5-1.2-1.2
				C64,88.4,64.4,87.9,65.1,87.9z"/>
			<path class="st0" d="M70.1,87.9c0.7,0,1.2,0.5,1.2,1.1c0,0.7-0.5,1.2-1.2,1.2c-0.7,0-1.2-0.5-1.2-1.2
				C69,88.4,69.5,87.9,70.1,87.9z"/>
			<path class="st0" d="M60,88.1c0.7-0.1,1.2,0.7,0.9,1.3c-0.4,0.7-1.7,0.6-1.7-0.4C59.2,88.6,59.5,88.2,60,88.1z"/>
			<path class="st0" d="M75.2,88.1c0.7-0.1,1.2,0.7,0.9,1.3c-0.4,0.7-1.7,0.6-1.7-0.4C74.3,88.6,74.6,88.2,75.2,88.1z"/>
			<path class="st0" d="M55,88.4c0.8-0.1,0.9,1.1,0.1,1.2C54.3,89.6,54.2,88.5,55,88.4z"/>
			<path class="st0" d="M80.2,88.5c0.8-0.1,0.9,1.1,0.1,1.2C79.6,89.6,79.5,88.6,80.2,88.5z"/>
			<path class="st0" d="M49.9,88.8c0.2,0,0.3,0,0.3,0.2C50.2,89.6,49.4,89,49.9,88.8z"/>
			<path class="st0" d="M85.3,88.8c0.2,0,0.3,0,0.3,0.2C85.6,89.6,84.7,89,85.3,88.8z"/>
			<path class="st0" d="M67.6,90.5c0.6-0.1,1.2,0.4,1.2,1.1c0,1.4-2.1,1.4-2.1,0C66.6,91,67,90.6,67.6,90.5z"/>
			<path class="st0" d="M62.5,90.6c0.9-0.1,1.4,0.9,0.8,1.6c-0.3,0.4-1,0.4-1.4,0c-0.3-0.4-0.3-1.1,0-1.4
				C62.1,90.7,62.2,90.6,62.5,90.6z"/>
			<path class="st0" d="M72.6,90.6c0.9-0.1,1.4,0.9,0.8,1.6c-0.3,0.4-1,0.4-1.4,0c-0.3-0.4-0.3-1.1,0-1.4
				C72.2,90.7,72.3,90.7,72.6,90.6z"/>
			<path class="st0" d="M57.5,90.9c0.4,0,0.7,0.2,0.7,0.6c0,1-1.4,0.9-1.4,0C56.9,91.2,57.1,90.9,57.5,90.9z"/>
			<path class="st0" d="M77.7,90.9c0.4,0,0.7,0.2,0.7,0.6c0,1-1.4,0.9-1.4,0C77.1,91.2,77.3,90.9,77.7,90.9z"/>
			<path class="st0" d="M52.5,91.2c0.4,0,0.5,0.6,0,0.7C52.1,91.9,52,91.3,52.5,91.2z"/>
			<path class="st0" d="M82.8,91.2c0.5-0.1,0.5,0.7,0.1,0.7C82.4,91.9,82.3,91.3,82.8,91.2z"/>
			<path class="st0" d="M65,93.2c0.6-0.1,1.1,0.3,1,1c-0.1,0.5-0.6,0.8-1,0.7c-0.5-0.1-0.8-0.5-0.7-1C64.3,93.6,64.6,93.3,65,93.2z"
				/>
			<path class="st0" d="M70,93.2c0.6-0.1,1.1,0.3,1,1c-0.1,0.5-0.6,0.8-1,0.7c-0.5-0.1-0.8-0.5-0.7-1C69.4,93.6,69.6,93.3,70,93.2z"
				/>
			<path class="st0" d="M60,93.4c0.9-0.1,1.1,1.4,0.1,1.4C59.2,94.8,59.2,93.5,60,93.4z"/>
			<path class="st0" d="M75.2,93.4c0.9-0.1,1.1,1.4,0.1,1.4C74.4,94.8,74.3,93.5,75.2,93.4z"/>
			<path class="st0" d="M55,93.7c0.4-0.1,0.6,0.4,0.4,0.7C54.8,94.9,54.2,93.8,55,93.7z"/>
			<path class="st0" d="M80.2,93.7C80.2,93.7,80.2,93.6,80.2,93.7c0.6,0,0.6,0.9,0,0.9C79.8,94.5,79.7,93.7,80.2,93.7z"/>
			<path class="st0" d="M67.5,95.9c0.4-0.1,0.8,0.1,0.9,0.5c0.1,0.4-0.3,1-0.9,0.9C66.8,97.1,66.7,96.1,67.5,95.9z"/>
			<path class="st0" d="M62.4,96c1.2-0.3,1,1.7-0.1,1.2c-0.2-0.1-0.5-0.4-0.3-0.9C62,96.2,62.2,96,62.4,96z"/>
			<path class="st0" d="M72.5,96c1.2-0.3,1,1.7-0.1,1.2c-0.2-0.1-0.5-0.4-0.3-0.9C72.1,96.2,72.3,96,72.5,96z"/>
			<path class="st0" d="M57.5,96.1c0.7,0,0.5,1.1-0.1,0.9C57,96.9,56.9,96.2,57.5,96.1z"/>
			<path class="st0" d="M77.7,96.2c0.7,0,0.5,1.1-0.1,0.9C77.2,96.9,77.1,96.2,77.7,96.2z"/>
			<path class="st0" d="M52.5,96.4c0.1,0,0.2,0,0.2,0.1c0.2,0.3-0.3,0.4-0.3,0.1C52.3,96.5,52.3,96.5,52.5,96.4z"/>
			<path class="st0" d="M82.8,96.4c0.1,0,0.2,0,0.2,0.1c0.2,0.3-0.3,0.4-0.3,0.1C82.6,96.6,82.6,96.5,82.8,96.4z"/>
			<path class="st0" d="M65,98.6c0.9-0.2,0.8,1.3-0.1,1C64.6,99.5,64.4,98.7,65,98.6z"/>
			<path class="st0" d="M70,98.6c0.9-0.2,0.8,1.3-0.1,1C69.6,99.5,69.5,98.8,70,98.6z"/>
			<path class="st0" d="M60,98.7c0.4-0.1,0.6,0.4,0.4,0.7C59.9,99.9,59.3,98.8,60,98.7z"/>
			<path class="st0" d="M75.2,98.7c0.4-0.1,0.6,0.4,0.4,0.7C75,99.9,74.4,98.8,75.2,98.7z"/>
			<path class="st0" d="M55,98.9c0.1,0,0.2,0,0.2,0.1c0.2,0.3-0.3,0.4-0.3,0.1C54.8,99.1,54.8,99,55,98.9z"/>
			<path class="st0" d="M80.2,99c0.1,0,0.2,0,0.2,0.1c0.2,0.3-0.3,0.4-0.3,0.1C80.1,99.1,80.1,99,80.2,99z"/>
			<path class="st0" d="M67.6,101.3c0.5-0.1,0.6,0.7,0.1,0.7C67.3,102.1,67.1,101.4,67.6,101.3z"/>
			<path class="st0" d="M62.5,101.4c0.2-0.1,0.4,0,0.4,0.2c0.1,0.5-0.7,0.6-0.6,0C62.3,101.5,62.4,101.4,62.5,101.4z"/>
			<path class="st0" d="M72.6,101.4c0.3-0.1,0.4,0,0.4,0.2c0.1,0.5-0.7,0.6-0.6,0C72.4,101.5,72.5,101.4,72.6,101.4z"/>
			<path class="st0" d="M57.5,101.5c0.1,0,0.2,0,0.2,0.1c0.2,0.3-0.3,0.4-0.3,0.1C57.4,101.6,57.4,101.5,57.5,101.5z"/>
			<path class="st0" d="M77.7,101.5c0.1,0,0.2,0,0.2,0.1c0.2,0.3-0.3,0.4-0.3,0.1C77.6,101.6,77.6,101.5,77.7,101.5z"/>
			<path class="st0" d="M65.1,104c0.1,0,0.2,0,0.2,0.1c0.2,0.3-0.3,0.4-0.3,0.1C64.9,104.1,64.9,104,65.1,104z"/>
			<path class="st0" d="M70.1,104c0.1,0,0.2,0,0.2,0.1c0.2,0.3-0.3,0.4-0.3,0.1C70,104.1,70,104.1,70.1,104z"/>
		</g>
	</g>
	<circle class="st6" cx="27.8" cy="77" r="10.4"/>
	<g>
		<defs>
			<circle id="SVGID_3_" cx="27.8" cy="77" r="10.4"/>
		</defs>
		<clipPath id="SVGID_4_">
			<use xlink:href="#SVGID_3_"  style="overflow:visible;"/>
		</clipPath>
		<g class="st2">
			<g>
				<g>
					<path class="st0" d="M21.6,68.6c0.2-0.1,0.3,0.1,0.4,0.2c0,0.4-0.6,0.5-0.6,0C21.4,68.7,21.5,68.6,21.6,68.6z"/>
					<path class="st0" d="M26.7,68.6c0.2-0.1,0.3,0.1,0.4,0.2c0,0.4-0.6,0.5-0.6,0C26.5,68.7,26.5,68.6,26.7,68.6z"/>
					<path class="st0" d="M16.6,68.7c0.1,0,0.2,0,0.2,0.1c0.2,0.3-0.3,0.4-0.3,0.1C16.5,68.8,16.5,68.7,16.6,68.7z"/>
					<path class="st0" d="M31.7,68.7c0.1,0,0.2,0,0.2,0.1c0.2,0.3-0.3,0.4-0.3,0.1C31.6,68.8,31.6,68.7,31.7,68.7z"/>
					<path class="st0" d="M24.1,70.9c0.8-0.2,0.7,1.1,0,0.9C23.7,71.8,23.6,71,24.1,70.9z"/>
					<path class="st0" d="M19.1,71c0.6-0.1,0.6,0.8,0.1,0.8C18.7,71.7,18.6,71,19.1,71z"/>
					<path class="st0" d="M29.2,71c0.6-0.1,0.6,0.8,0.1,0.8C28.8,71.8,28.7,71.1,29.2,71z"/>
					<path class="st0" d="M14,71.1c0.2-0.1,0.3,0,0.3,0.1c0.1,0.4-0.6,0.5-0.5,0C13.9,71.2,13.9,71.1,14,71.1z"/>
					<path class="st0" d="M34.2,71.1c0.2-0.1,0.3,0,0.3,0.1c0.1,0.4-0.6,0.5-0.5,0C34.1,71.2,34.1,71.2,34.2,71.1z"/>
					<path class="st0" d="M21.5,73.3c0.4-0.1,0.7,0.2,0.8,0.5c0.2,1-1.4,1-1.3,0C21.1,73.5,21.3,73.3,21.5,73.3z"/>
					<path class="st0" d="M26.6,73.3c0.4-0.1,0.7,0.2,0.8,0.5c0.2,1-1.4,1-1.3,0C26.2,73.5,26.4,73.3,26.6,73.3z"/>
					<path class="st0" d="M16.5,73.4c0.7-0.2,0.8,0.8,0.2,0.9C16.2,74.5,15.9,73.5,16.5,73.4z"/>
					<path class="st0" d="M31.7,73.4c0.7-0.2,0.8,0.8,0.2,0.9C31.3,74.5,31,73.6,31.7,73.4z"/>
					<path class="st0" d="M11.5,73.6c0.2-0.1,0.3,0,0.3,0.1c0.1,0.4-0.6,0.5-0.5,0C11.4,73.7,11.4,73.7,11.5,73.6z"/>
					<path class="st0" d="M36.7,73.7c0.2-0.1,0.3,0,0.3,0.1c0.1,0.4-0.6,0.5-0.5,0C36.6,73.7,36.7,73.7,36.7,73.7z"/>
					<path class="st0" d="M24,75.6c0.6-0.1,1.1,0.3,1,1c-0.2,0.9-1.8,0.8-1.6-0.4C23.5,75.9,23.7,75.7,24,75.6z"/>
					<path class="st0" d="M19,75.7c0.4-0.1,0.8,0.1,0.9,0.5c0.1,0.4-0.3,1-0.9,0.9C18.3,76.9,18.2,75.8,19,75.7z"/>
					<path class="st0" d="M29.1,75.7c0.4-0.1,0.8,0.1,0.9,0.5c0.1,0.4-0.3,1-0.9,0.9C28.4,77,28.3,75.9,29.1,75.7z"/>
					<path class="st0" d="M14,75.9c0.8-0.1,0.7,1,0.1,1C13.5,76.9,13.4,76,14,75.9z"/>
					<path class="st0" d="M34.2,75.9c0.8-0.1,0.7,1,0.1,1C33.7,77,33.6,76,34.2,75.9z"/>
					<path class="st0" d="M9,76.2c0.2,0,0.3,0,0.3,0.2C9.3,77,8.5,76.3,9,76.2z"/>
					<path class="st0" d="M39.3,76.2c0.2,0,0.3,0,0.3,0.2C39.6,77,38.8,76.4,39.3,76.2z"/>
					<path class="st0" d="M21.6,78c0.8-0.1,1.4,1,0.7,1.6c-0.6,0.6-1.6,0.2-1.7-0.7c0-0.3,0.1-0.6,0.3-0.7
						C21.1,78.1,21.3,78,21.6,78z"/>
					<path class="st0" d="M26.7,78c0.8-0.1,1.4,1,0.7,1.6c-0.6,0.6-1.6,0.2-1.7-0.7c0-0.3,0.1-0.6,0.3-0.7
						C26.2,78.1,26.3,78,26.7,78z"/>
					<path class="st0" d="M16.5,78.2c0.9-0.1,1.2,1.2,0.4,1.5c-0.6,0.2-1.3-0.3-1-1C16,78.4,16.2,78.2,16.5,78.2z"/>
					<path class="st0" d="M31.7,78.2c0.9-0.1,1.2,1.2,0.4,1.5c-0.6,0.2-1.3-0.3-1-1C31.1,78.4,31.3,78.2,31.7,78.2z"/>
					<path class="st0" d="M11.5,78.5c0.8-0.2,0.7,1.1,0,0.9C11.1,79.3,10.9,78.6,11.5,78.5z"/>
					<path class="st0" d="M36.7,78.5c0.8-0.2,0.7,1.1,0,0.9C36.3,79.3,36.2,78.6,36.7,78.5z"/>
					<path class="st0" d="M6.5,78.8c0.1,0,0.2,0,0.2,0.1c0.2,0.3-0.3,0.4-0.3,0.1C6.4,78.9,6.4,78.8,6.5,78.8z"/>
					<path class="st0" d="M41.8,78.8c0.1,0,0.2,0,0.2,0.1c0.2,0.3-0.3,0.4-0.3,0.1C41.7,78.9,41.7,78.8,41.8,78.8z"/>
					<path class="st0" d="M24.1,80.3c0.5,0,0.9,0.3,1,0.5c0.7,1.1-0.6,2.2-1.6,1.6c-0.1-0.1-0.3-0.3-0.3-0.3
						C22.7,81.3,23.3,80.4,24.1,80.3z"/>
					<path class="st0" d="M19.1,80.5c0.6,0,1.1,0.4,1.1,1c0,1.3-2,1.4-2,0C18.1,80.9,18.5,80.5,19.1,80.5z"/>
					<path class="st0" d="M29.2,80.5c0.6,0,1.1,0.4,1.1,1c0,1.3-2,1.4-2,0C28.2,80.9,28.6,80.5,29.2,80.5z"/>
					<path class="st0" d="M14,80.8c0.2,0,0.4,0,0.4,0c0.5,0.2,0.6,1.1,0,1.3c-0.4,0.2-0.8-0.1-0.9-0.4c0-0.1-0.1-0.3,0-0.6
						C13.5,81.1,13.6,80.8,14,80.8z"/>
					<path class="st0" d="M34.1,80.8c0.2,0,0.4,0,0.4,0c0.5,0.2,0.6,1.1,0,1.3c-0.4,0.2-0.8-0.1-0.9-0.4c0-0.1-0.1-0.3,0-0.6
						C33.7,81.1,33.8,80.8,34.1,80.8z"/>
					<path class="st0" d="M9,81.1c0.5-0.1,0.6,0.7,0.1,0.7C8.7,81.8,8.5,81.2,9,81.1z"/>
					<path class="st0" d="M39.3,81.1c0.5-0.1,0.6,0.7,0.1,0.7C38.9,81.9,38.8,81.2,39.3,81.1z"/>
					<path class="st0" d="M21.5,82.8c0.7-0.1,1.3,0.4,1.4,1c0.1,0.7-0.4,1.3-1.1,1.4c-0.7,0.1-1.5-0.4-1.4-1.4
						C20.5,83.3,20.9,82.9,21.5,82.8z"/>
					<path class="st0" d="M26.6,82.8c0.7-0.1,1.3,0.4,1.4,1c0.1,0.7-0.4,1.3-1,1.4c-0.7,0.1-1.5-0.4-1.4-1.4
						C25.6,83.3,26,82.9,26.6,82.8z"/>
					<path class="st0" d="M16.5,83.1c0.6-0.1,0.9,0.3,1,0.6c0.4,1.2-1.4,1.7-1.8,0.6C15.5,83.6,16,83.1,16.5,83.1z"/>
					<path class="st0" d="M31.7,83.1c0.6-0.1,0.9,0.3,1,0.6c0.4,1.2-1.4,1.7-1.8,0.6C30.7,83.6,31.1,83.1,31.7,83.1z"/>
					<path class="st0" d="M11.4,83.4c0.4-0.1,0.8,0.2,0.7,0.7c-0.1,0.7-1.3,0.6-1.2-0.3C11,83.7,11.2,83.5,11.4,83.4z"/>
					<path class="st0" d="M36.7,83.4c0.4-0.1,0.8,0.2,0.7,0.7c-0.1,0.7-1.3,0.6-1.2-0.3C36.3,83.7,36.4,83.5,36.7,83.4z"/>
					<path class="st0" d="M6.5,83.8c0.2,0,0.3,0,0.3,0.2C6.8,84.5,5.9,83.9,6.5,83.8z"/>
					<path class="st0" d="M41.8,83.8c0.2,0,0.3,0,0.3,0.2C42.1,84.5,41.3,83.9,41.8,83.8z"/>
					<path class="st0" d="M24.1,85.2c0.8-0.1,1.4,0.5,1.4,1.3c0,0.8-0.7,1.3-1.3,1.3c-0.8,0-1.3-0.6-1.3-1.3
						C22.9,85.8,23.4,85.3,24.1,85.2z"/>
					<path class="st0" d="M18.9,85.4c0.6-0.1,1,0.2,1.2,0.6c0.4,0.9-0.5,2-1.5,1.5c-0.4-0.2-0.8-0.8-0.5-1.5
						C18.2,85.8,18.5,85.5,18.9,85.4z"/>
					<path class="st0" d="M29,85.4c0.6-0.1,1,0.2,1.2,0.6c0.4,0.9-0.5,2-1.5,1.5c-0.4-0.2-0.8-0.8-0.5-1.5
						C28.3,85.9,28.6,85.5,29,85.4z"/>
					<path class="st0" d="M13.9,85.7c0.5-0.1,1.1,0.3,0.9,0.9c-0.2,0.8-1.4,0.7-1.5,0C13.2,86.2,13.5,85.8,13.9,85.7z"/>
					<path class="st0" d="M34.1,85.8c0.5-0.1,1.1,0.3,0.9,0.9c-0.2,0.8-1.4,0.7-1.5,0C33.4,86.2,33.7,85.8,34.1,85.8z"/>
					<path class="st0" d="M9,86.1c0.4-0.1,0.6,0.4,0.4,0.7C8.8,87.3,8.2,86.2,9,86.1z"/>
					<path class="st0" d="M39.3,86.1c0.4-0.1,0.6,0.4,0.4,0.7C39.1,87.3,38.5,86.2,39.3,86.1z"/>
					<path class="st0" d="M21.6,87.9c0.7,0,1.2,0.5,1.2,1.1c0,0.7-0.5,1.2-1.2,1.2c-0.7,0-1.2-0.5-1.2-1.2
						C20.5,88.4,20.9,87.9,21.6,87.9z"/>
					<path class="st0" d="M26.7,87.9c0.7,0,1.2,0.5,1.2,1.1c0,0.7-0.5,1.2-1.2,1.2c-0.7,0-1.2-0.5-1.2-1.2
						C25.5,88.4,26,87.9,26.7,87.9z"/>
					<path class="st0" d="M16.6,88.1c0.7-0.1,1.2,0.7,0.9,1.3C17,90.2,15.7,90,15.7,89C15.7,88.6,16,88.2,16.6,88.1z"/>
					<path class="st0" d="M31.7,88.1c0.7-0.1,1.2,0.7,0.9,1.3c-0.4,0.7-1.7,0.6-1.7-0.4C30.9,88.6,31.2,88.2,31.7,88.1z"/>
					<path class="st0" d="M11.5,88.4c0.8-0.1,0.9,1.1,0.1,1.2C10.9,89.6,10.8,88.5,11.5,88.4z"/>
					<path class="st0" d="M36.7,88.5c0.8-0.1,0.9,1.1,0.1,1.2C36.1,89.6,36,88.6,36.7,88.5z"/>
					<path class="st0" d="M6.5,88.8c0.2,0,0.3,0,0.3,0.2C6.8,89.6,5.9,89,6.5,88.8z"/>
					<path class="st0" d="M41.8,88.8c0.2,0,0.3,0,0.3,0.2C42.1,89.6,41.3,89,41.8,88.8z"/>
					<path class="st0" d="M24.1,90.5c0.6-0.1,1.2,0.4,1.2,1.1c0,1.4-2.1,1.4-2.1,0C23.1,91,23.5,90.6,24.1,90.5z"/>
					<path class="st0" d="M19,90.6c0.9-0.1,1.4,0.9,0.8,1.6c-0.3,0.4-1,0.4-1.4,0c-0.3-0.4-0.3-1.1,0-1.4
						C18.6,90.7,18.8,90.6,19,90.6z"/>
					<path class="st0" d="M29.1,90.6c0.9-0.1,1.4,0.9,0.8,1.6c-0.3,0.4-1,0.4-1.4,0c-0.3-0.4-0.3-1.1,0-1.4
						C28.7,90.7,28.8,90.7,29.1,90.6z"/>
					<path class="st0" d="M14,90.9c0.4,0,0.7,0.2,0.7,0.6c0,1-1.4,0.9-1.4,0C13.4,91.2,13.6,90.9,14,90.9z"/>
					<path class="st0" d="M34.2,90.9c0.4,0,0.7,0.2,0.7,0.6c0,1-1.4,0.9-1.4,0C33.6,91.2,33.8,90.9,34.2,90.9z"/>
					<path class="st0" d="M9,91.2c0.4,0,0.5,0.6,0,0.7C8.6,91.9,8.6,91.3,9,91.2z"/>
					<path class="st0" d="M39.3,91.2c0.5-0.1,0.5,0.7,0.1,0.7C39,91.9,38.8,91.3,39.3,91.2z"/>
					<path class="st0" d="M21.5,93.2c0.6-0.1,1.1,0.3,1,1c-0.1,0.5-0.6,0.8-1,0.7c-0.5-0.1-0.8-0.5-0.7-1
						C20.8,93.6,21.1,93.3,21.5,93.2z"/>
					<path class="st0" d="M26.6,93.2c0.6-0.1,1.1,0.3,1,1c-0.1,0.5-0.6,0.8-1,0.7c-0.5-0.1-0.8-0.5-0.7-1
						C25.9,93.6,26.1,93.3,26.6,93.2z"/>
					<path class="st0" d="M16.5,93.4c0.9-0.1,1.1,1.4,0.1,1.4C15.7,94.8,15.7,93.5,16.5,93.4z"/>
					<path class="st0" d="M31.7,93.4c0.9-0.1,1.1,1.4,0.1,1.4C30.9,94.8,30.8,93.5,31.7,93.4z"/>
					<path class="st0" d="M11.5,93.7c0.4-0.1,0.6,0.4,0.4,0.7C11.4,94.9,10.7,93.8,11.5,93.7z"/>
					<path class="st0" d="M36.8,93.7C36.8,93.7,36.8,93.6,36.8,93.7c0.6,0,0.6,0.9,0,0.9C36.3,94.5,36.2,93.7,36.8,93.7z"/>
					<path class="st0" d="M24,95.9c0.4-0.1,0.8,0.1,0.9,0.5c0.1,0.4-0.3,1-0.9,0.9C23.3,97.1,23.3,96.1,24,95.9z"/>
					<path class="st0" d="M19,96c1.2-0.3,1,1.7-0.1,1.2c-0.2-0.1-0.5-0.4-0.3-0.9C18.6,96.2,18.7,96,19,96z"/>
					<path class="st0" d="M29.1,96c1.2-0.3,1,1.7-0.1,1.2c-0.2-0.1-0.5-0.4-0.3-0.9C28.7,96.2,28.8,96,29.1,96z"/>
					<path class="st0" d="M14.1,96.1c0.7,0,0.5,1.1-0.1,0.9C13.6,96.9,13.5,96.2,14.1,96.1z"/>
					<path class="st0" d="M34.3,96.2c0.7,0,0.5,1.1-0.1,0.9C33.8,96.9,33.7,96.2,34.3,96.2z"/>
					<path class="st0" d="M9,96.4c0.1,0,0.2,0,0.2,0.1c0.2,0.3-0.3,0.4-0.3,0.1C8.9,96.5,8.9,96.5,9,96.4z"/>
					<path class="st0" d="M39.3,96.4c0.1,0,0.2,0,0.2,0.1c0.2,0.3-0.3,0.4-0.3,0.1C39.1,96.6,39.1,96.5,39.3,96.4z"/>
					<path class="st0" d="M21.5,98.6c0.9-0.2,0.8,1.3-0.1,1C21.1,99.5,20.9,98.7,21.5,98.6z"/>
					<path class="st0" d="M26.6,98.6c0.9-0.2,0.8,1.3-0.1,1C26.1,99.5,26,98.8,26.6,98.6z"/>
					<path class="st0" d="M16.6,98.7c0.4-0.1,0.6,0.4,0.4,0.7C16.4,99.9,15.8,98.8,16.6,98.7z"/>
					<path class="st0" d="M31.7,98.7c0.4-0.1,0.6,0.4,0.4,0.7C31.6,99.9,30.9,98.8,31.7,98.7z"/>
					<path class="st0" d="M11.5,98.9c0.1,0,0.2,0,0.2,0.1c0.2,0.3-0.3,0.4-0.3,0.1C11.4,99.1,11.4,99,11.5,98.9z"/>
					<path class="st0" d="M36.8,99c0.1,0,0.2,0,0.2,0.1c0.2,0.3-0.3,0.4-0.3,0.1C36.6,99.1,36.6,99,36.8,99z"/>
					<path class="st0" d="M24.1,101.3c0.5-0.1,0.6,0.7,0.1,0.7C23.8,102.1,23.6,101.4,24.1,101.3z"/>
					<path class="st0" d="M19,101.4c0.2-0.1,0.4,0,0.4,0.2c0.1,0.5-0.7,0.6-0.6,0C18.8,101.5,18.9,101.4,19,101.4z"/>
					<path class="st0" d="M29.1,101.4c0.3-0.1,0.4,0,0.4,0.2c0.1,0.5-0.7,0.6-0.6,0C28.9,101.5,29,101.4,29.1,101.4z"/>
					<path class="st0" d="M14.1,101.5c0.1,0,0.2,0,0.2,0.1c0.2,0.3-0.3,0.4-0.3,0.1C13.9,101.6,13.9,101.5,14.1,101.5z"/>
					<path class="st0" d="M34.2,101.5c0.1,0,0.2,0,0.2,0.1c0.2,0.3-0.3,0.4-0.3,0.1C34.1,101.6,34.1,101.5,34.2,101.5z"/>
					<path class="st0" d="M21.6,104c0.1,0,0.2,0,0.2,0.1c0.2,0.3-0.3,0.4-0.3,0.1C21.5,104.1,21.5,104,21.6,104z"/>
					<path class="st0" d="M26.7,104c0.1,0,0.2,0,0.2,0.1c0.2,0.3-0.3,0.4-0.3,0.1C26.5,104.1,26.5,104.1,26.7,104z"/>
				</g>
			</g>
		</g>
	</g>
	<circle class="st5" cx="27.8" cy="77" r="10.4"/>
	<g>
		<path class="st7" d="M12.4,79.2c-3.5,0-6.6-0.5-6.6-6.2v-4.1c0-5.4,2.7-13.6,8.5-14.7l3.2-14.4c0.1-4.1,3.5-7.5,7.6-7.5h41.4
			c4.2,0,7.5,3.3,7.6,7.5L77.5,54h11.2c4.9,0,9.6,0.7,11.2,5.8c0,0.1,0.1,0.2,0.1,0.4v17.8c0,0.7-0.5,1.2-1.2,1.2l-2,0l-11.9,0
			c-0.3,0-0.7-0.1-0.9-0.4c-0.2-0.2-0.3-0.6-0.3-0.9c0-0.3,0-0.6,0-0.9c0-5.1-4.1-9.2-9.2-9.2c-5.1,0-9.2,4.1-9.2,9.2
			c0,0.2,0,0.5,0,0.7c0,0.1,0,0.2,0,0.3c0,0.7-0.5,1.2-1.2,1.2c0,0,0,0,0,0H38.1c-0.3,0-0.7-0.1-0.9-0.4c-0.2-0.2-0.3-0.6-0.3-0.9
			c0-0.3,0-0.6,0-0.9c0-5.1-4.1-9.2-9.2-9.2c-5.1,0-9.2,4.1-9.2,9.2c0,0.2,0,0.5,0,0.7c0,0.1,0,0.2,0,0.3c0,0.7-0.5,1.2-1.2,1.2
			c0,0,0,0,0,0h-1.4c-0.7,0-1.4,0-2,0C13.5,79.2,13,79.2,12.4,79.2z M25.1,34.7c-2.9,0-5.2,2.3-5.2,5.2c0,0.1,0,0.2,0,0.3l-3.4,15.3
			c-0.1,0.5-0.6,0.9-1.1,0.9c-4.7,0.3-7.2,7.5-7.2,12.5V73c0,3.5,1,3.8,4.2,3.8c0.5,0,1,0,1.6,0c0.6,0,1.3,0,2.1,0h0.1
			c0.1-6.3,5.3-11.3,11.6-11.3s11.4,5.1,11.6,11.3h23.8c0.1-6.3,5.3-11.3,11.6-11.3c6.3,0,11.4,5.1,11.6,11.3l11.4,0V60.3
			c-1.1-3.3-4.2-3.9-8.8-3.9H76.6c-0.6,0-1-0.4-1.2-0.9l-3.7-15.3c0-0.1,0-0.2,0-0.3c0-2.9-2.3-5.2-5.2-5.2H25.1z"/>
	</g>
	<g>
		<g>
			<path class="st7" d="M48,65.1c-6.9,0-12.5-4.9-12.5-10.8c0-0.7,0.5-1.2,1.2-1.2s1.2,0.5,1.2,1.2c0,4.6,4.6,8.4,10.1,8.4
				c5.6,0,10.1-3.8,10.1-8.4c0-0.7,0.5-1.2,1.2-1.2s1.2,0.5,1.2,1.2C60.5,60.2,54.9,65.1,48,65.1z"/>
		</g>
		<circle class="st7" cx="57.1" cy="47.2" r="2.2"/>
		<circle class="st7" cx="39" cy="47.2" r="2.2"/>
	</g>
	<g>
		<defs>
			<path id="SVGID_5_" d="M81.7,55.2H69.5L65.9,40c0-3.5-2.9-6.4-6.4-6.4h-7.1H25.2h-7.1c-3.5,0-6.4,2.9-6.4,6.4L8.3,55.2
				C2.8,55.6,0,63.3,0,68.9V73c0,5.8,3.2,4.9,9.1,4.9h7.6c0-0.2,0-0.5,0-0.7c0-6,4.9-10.9,10.9-10.9c6,0,10.9,4.9,10.9,10.9
				c0,0.3,0,0.5,0,0.7H64c0.3-5.8,5-10.4,10.8-10.4c5.8,0,10.6,4.6,10.8,10.4c2.3,0,4.4,0,6.1,0V60.1C90.4,55.9,86.4,55.2,81.7,55.2
				z"/>
		</defs>
		<clipPath id="SVGID_6_">
			<use xlink:href="#SVGID_5_"  style="overflow:visible;"/>
		</clipPath>
		<g class="st3">
			<path class="st0" d="M13.6,26.8c0.2-0.1,0.3,0.1,0.4,0.2c0,0.4-0.6,0.5-0.6,0C13.4,26.9,13.5,26.8,13.6,26.8z"/>
			<path class="st0" d="M18.7,26.8c0.2-0.1,0.3,0.1,0.4,0.2c0,0.4-0.6,0.5-0.6,0C18.5,26.9,18.5,26.8,18.7,26.8z"/>
			<path class="st0" d="M8.6,26.9c0.1,0,0.2,0,0.2,0.1C9,27.2,8.5,27.3,8.5,27C8.5,27,8.5,26.9,8.6,26.9z"/>
			<path class="st0" d="M23.7,26.9c0.1,0,0.2,0,0.2,0.1c0.2,0.3-0.3,0.4-0.3,0.1C23.6,27,23.6,26.9,23.7,26.9z"/>
			<path class="st0" d="M16.1,29.1c0.8-0.2,0.7,1.1,0,0.9C15.7,30,15.6,29.2,16.1,29.1z"/>
			<path class="st0" d="M11.1,29.2c0.6-0.1,0.6,0.8,0.1,0.8C10.7,30,10.6,29.2,11.1,29.2z"/>
			<path class="st0" d="M21.2,29.2c0.6-0.1,0.6,0.8,0.1,0.8C20.8,30,20.7,29.3,21.2,29.2z"/>
			<path class="st0" d="M6,29.3c0.2-0.1,0.3,0,0.3,0.1c0.1,0.4-0.6,0.5-0.5,0C5.9,29.4,5.9,29.4,6,29.3z"/>
			<path class="st0" d="M26.2,29.3c0.2-0.1,0.3,0,0.3,0.1c0.1,0.4-0.6,0.5-0.5,0C26.1,29.4,26.1,29.4,26.2,29.3z"/>
			<path class="st0" d="M13.5,31.5c0.4-0.1,0.7,0.2,0.8,0.5c0.2,1-1.4,1-1.3,0C13.1,31.7,13.3,31.5,13.5,31.5z"/>
			<path class="st0" d="M18.6,31.5c0.4-0.1,0.7,0.2,0.8,0.5c0.2,1-1.4,1-1.3,0C18.2,31.7,18.4,31.5,18.6,31.5z"/>
			<path class="st0" d="M8.5,31.6c0.7-0.2,0.8,0.8,0.2,0.9C8.2,32.7,7.9,31.8,8.5,31.6z"/>
			<path class="st0" d="M23.7,31.6c0.7-0.2,0.8,0.8,0.2,0.9C23.3,32.7,23,31.8,23.7,31.6z"/>
			<path class="st0" d="M3.5,31.9c0.2-0.1,0.3,0,0.3,0.1c0.1,0.4-0.6,0.5-0.5,0C3.4,31.9,3.4,31.9,3.5,31.9z"/>
			<path class="st0" d="M28.7,31.9c0.2-0.1,0.3,0,0.3,0.1c0.1,0.4-0.6,0.5-0.5,0C28.6,31.9,28.7,31.9,28.7,31.9z"/>
			<path class="st0" d="M16,33.8c0.6-0.1,1.1,0.3,1,1c-0.2,0.9-1.8,0.8-1.6-0.4C15.5,34.1,15.7,33.9,16,33.8z"/>
			<path class="st0" d="M11,33.9c0.4-0.1,0.8,0.1,0.9,0.5c0.1,0.4-0.3,1-0.9,0.9C10.3,35.1,10.2,34,11,33.9z"/>
			<path class="st0" d="M21.1,33.9c0.4-0.1,0.8,0.1,0.9,0.5c0.1,0.4-0.3,1-0.9,0.9C20.4,35.2,20.3,34.1,21.1,33.9z"/>
			<path class="st0" d="M6,34.1c0.8-0.1,0.7,1,0.1,1C5.5,35.1,5.4,34.2,6,34.1z"/>
			<path class="st0" d="M26.2,34.1c0.8-0.1,0.7,1,0.1,1C25.7,35.2,25.6,34.2,26.2,34.1z"/>
			<path class="st0" d="M1,34.4c0.2,0,0.3,0,0.3,0.2C1.3,35.2,0.5,34.5,1,34.4z"/>
			<path class="st0" d="M31.3,34.4c0.2,0,0.3,0,0.3,0.2C31.6,35.2,30.8,34.6,31.3,34.4z"/>
			<path class="st0" d="M13.6,36.2c0.8-0.1,1.4,1,0.7,1.6c-0.6,0.6-1.6,0.2-1.7-0.7c0-0.3,0.1-0.6,0.3-0.7
				C13.1,36.3,13.3,36.2,13.6,36.2z"/>
			<path class="st0" d="M18.7,36.2c0.8-0.1,1.4,1,0.7,1.6c-0.6,0.6-1.6,0.2-1.7-0.7c0-0.3,0.1-0.6,0.3-0.7
				C18.2,36.3,18.3,36.2,18.7,36.2z"/>
			<path class="st0" d="M8.5,36.4c0.9-0.1,1.2,1.2,0.4,1.5c-0.6,0.2-1.3-0.3-1-1C8,36.6,8.2,36.4,8.5,36.4z"/>
			<path class="st0" d="M23.7,36.4c0.9-0.1,1.2,1.2,0.4,1.5c-0.6,0.2-1.3-0.3-1-1C23.1,36.6,23.3,36.4,23.7,36.4z"/>
			<path class="st0" d="M3.5,36.7c0.8-0.2,0.7,1.1,0,0.9C3.1,37.5,2.9,36.8,3.5,36.7z"/>
			<path class="st0" d="M28.7,36.7c0.8-0.2,0.7,1.1,0,0.9C28.3,37.5,28.2,36.8,28.7,36.7z"/>
			<path class="st0" d="M-1.5,37c0.1,0,0.2,0,0.2,0.1c0.2,0.3-0.3,0.4-0.3,0.1C-1.6,37.1-1.6,37-1.5,37z"/>
			<path class="st0" d="M33.8,37c0.1,0,0.2,0,0.2,0.1c0.2,0.3-0.3,0.4-0.3,0.1C33.7,37.1,33.7,37,33.8,37z"/>
			<path class="st0" d="M16.2,38.5c0.5,0,0.9,0.3,1,0.5c0.7,1.1-0.6,2.2-1.6,1.6c-0.1-0.1-0.3-0.3-0.3-0.3
				C14.7,39.5,15.3,38.6,16.2,38.5z"/>
			<path class="st0" d="M11.1,38.7c0.6,0,1.1,0.4,1.1,1c0,1.3-2,1.4-2,0C10.1,39.1,10.6,38.7,11.1,38.7z"/>
			<path class="st0" d="M21.2,38.7c0.6,0,1.1,0.4,1.1,1c0,1.3-2,1.4-2,0C20.2,39.1,20.6,38.7,21.2,38.7z"/>
			<path class="st0" d="M6,39c0.2,0,0.4,0,0.4,0c0.5,0.2,0.6,1.1,0,1.3c-0.4,0.2-0.8-0.1-0.9-0.4c0-0.1-0.1-0.3,0-0.6
				C5.5,39.3,5.7,39,6,39z"/>
			<path class="st0" d="M26.1,39c0.2,0,0.4,0,0.4,0c0.5,0.2,0.6,1.1,0,1.3c-0.4,0.2-0.8-0.1-0.9-0.4c0-0.1-0.1-0.3,0-0.6
				C25.7,39.3,25.8,39,26.1,39z"/>
			<path class="st0" d="M1,39.3C1.6,39.2,1.6,40,1.1,40C0.7,40,0.5,39.4,1,39.3z"/>
			<path class="st0" d="M31.3,39.3c0.5-0.1,0.6,0.7,0.1,0.7C31,40.1,30.8,39.4,31.3,39.3z"/>
			<path class="st0" d="M13.5,41c0.7-0.1,1.3,0.4,1.4,1c0.1,0.7-0.4,1.3-1.1,1.4c-0.7,0.1-1.5-0.4-1.4-1.4
				C12.5,41.5,12.9,41.1,13.5,41z"/>
			<path class="st0" d="M18.6,41c0.7-0.1,1.3,0.4,1.4,1c0.1,0.7-0.4,1.3-1,1.4c-0.7,0.1-1.5-0.4-1.4-1.4C17.6,41.5,18,41.1,18.6,41z
				"/>
			<path class="st0" d="M8.5,41.3c0.6-0.1,0.9,0.3,1,0.6c0.4,1.2-1.4,1.7-1.8,0.6C7.5,41.8,8,41.3,8.5,41.3z"/>
			<path class="st0" d="M23.7,41.3c0.6-0.1,0.9,0.3,1,0.6c0.4,1.2-1.4,1.7-1.8,0.6C22.7,41.8,23.1,41.4,23.7,41.3z"/>
			<path class="st0" d="M3.4,41.6c0.4-0.1,0.8,0.2,0.7,0.7C4,43,2.8,42.9,3,42C3,41.9,3.2,41.7,3.4,41.6z"/>
			<path class="st0" d="M28.7,41.6c0.4-0.1,0.8,0.2,0.7,0.7c-0.1,0.7-1.3,0.6-1.2-0.3C28.3,41.9,28.4,41.7,28.7,41.6z"/>
			<path class="st0" d="M-1.5,42c0.2,0,0.3,0,0.3,0.2C-1.2,42.7-2.1,42.1-1.5,42z"/>
			<path class="st0" d="M33.8,42c0.2,0,0.3,0,0.3,0.2C34.1,42.7,33.3,42.1,33.8,42z"/>
			<path class="st0" d="M16.1,43.4c0.8-0.1,1.4,0.5,1.4,1.3c0,0.8-0.7,1.3-1.3,1.3c-0.8,0-1.3-0.6-1.3-1.3
				C14.9,44,15.4,43.5,16.1,43.4z"/>
			<path class="st0" d="M10.9,43.6c0.6-0.1,1,0.2,1.2,0.6c0.4,0.9-0.5,2-1.5,1.5c-0.4-0.2-0.8-0.8-0.5-1.5
				C10.2,44,10.5,43.7,10.9,43.6z"/>
			<path class="st0" d="M21,43.6c0.6-0.1,1,0.2,1.2,0.6c0.4,0.9-0.5,2-1.5,1.5c-0.4-0.2-0.8-0.8-0.5-1.5
				C20.3,44.1,20.6,43.7,21,43.6z"/>
			<path class="st0" d="M5.9,43.9c0.5-0.1,1.1,0.3,0.9,0.9c-0.2,0.8-1.4,0.7-1.5,0C5.2,44.4,5.5,44,5.9,43.9z"/>
			<path class="st0" d="M26.1,44c0.5-0.1,1.1,0.3,0.9,0.9c-0.2,0.8-1.4,0.7-1.5,0C25.4,44.4,25.7,44,26.1,44z"/>
			<path class="st0" d="M1,44.3c0.4-0.1,0.6,0.4,0.4,0.7C0.8,45.5,0.2,44.4,1,44.3z"/>
			<path class="st0" d="M31.3,44.3c0.4-0.1,0.6,0.4,0.4,0.7C31.1,45.5,30.5,44.4,31.3,44.3z"/>
			<path class="st0" d="M13.6,46.1c0.7,0,1.2,0.5,1.2,1.1c0,0.7-0.5,1.2-1.2,1.2c-0.7,0-1.2-0.5-1.2-1.2
				C12.5,46.6,13,46.1,13.6,46.1z"/>
			<path class="st0" d="M18.7,46.1c0.7,0,1.2,0.5,1.2,1.1c0,0.7-0.5,1.2-1.2,1.2c-0.7,0-1.2-0.5-1.2-1.2
				C17.5,46.6,18,46.1,18.7,46.1z"/>
			<path class="st0" d="M8.6,46.3c0.7-0.1,1.2,0.7,0.9,1.3c-0.4,0.7-1.7,0.6-1.7-0.4C7.7,46.8,8,46.4,8.6,46.3z"/>
			<path class="st0" d="M23.7,46.3c0.7-0.1,1.2,0.7,0.9,1.3c-0.4,0.7-1.7,0.6-1.7-0.4C22.9,46.8,23.2,46.4,23.7,46.3z"/>
			<path class="st0" d="M3.5,46.7c0.8-0.1,0.9,1.1,0.1,1.2C2.9,47.8,2.8,46.7,3.5,46.7z"/>
			<path class="st0" d="M28.8,46.7c0.8-0.1,0.9,1.1,0.1,1.2C28.1,47.8,28,46.8,28.8,46.7z"/>
			<path class="st0" d="M-1.5,47c0.2,0,0.3,0,0.3,0.2C-1.2,47.8-2.1,47.2-1.5,47z"/>
			<path class="st0" d="M33.8,47c0.2,0,0.3,0,0.3,0.2C34.1,47.8,33.3,47.2,33.8,47z"/>
			<path class="st0" d="M16.1,48.7c0.6-0.1,1.2,0.4,1.2,1.1c0,1.4-2.1,1.4-2.1,0C15.1,49.2,15.5,48.8,16.1,48.7z"/>
			<path class="st0" d="M11,48.8c0.9-0.1,1.4,0.9,0.8,1.6c-0.3,0.4-1,0.4-1.4,0c-0.3-0.4-0.3-1.1,0-1.4C10.6,48.9,10.8,48.8,11,48.8
				z"/>
			<path class="st0" d="M21.1,48.8c0.9-0.1,1.4,0.9,0.8,1.6c-0.3,0.4-1,0.4-1.4,0c-0.3-0.4-0.3-1.1,0-1.4
				C20.7,48.9,20.9,48.9,21.1,48.8z"/>
			<path class="st0" d="M6,49.1c0.4,0,0.7,0.2,0.7,0.6c0,1-1.4,0.9-1.4,0C5.4,49.4,5.6,49.1,6,49.1z"/>
			<path class="st0" d="M26.2,49.1c0.4,0,0.7,0.2,0.7,0.6c0,1-1.4,0.9-1.4,0C25.6,49.4,25.8,49.1,26.2,49.1z"/>
			<path class="st0" d="M1,49.4c0.4,0,0.5,0.6,0,0.7C0.6,50.1,0.6,49.5,1,49.4z"/>
			<path class="st0" d="M31.3,49.4c0.5-0.1,0.5,0.7,0.1,0.7C31,50.1,30.8,49.5,31.3,49.4z"/>
			<path class="st0" d="M13.5,51.4c0.6-0.1,1.1,0.3,1,1c-0.1,0.5-0.6,0.8-1,0.7c-0.5-0.1-0.8-0.5-0.7-1
				C12.8,51.8,13.1,51.5,13.5,51.4z"/>
			<path class="st0" d="M18.6,51.4c0.6-0.1,1.1,0.3,1,1c-0.1,0.5-0.6,0.8-1,0.7c-0.5-0.1-0.8-0.5-0.7-1
				C17.9,51.8,18.1,51.5,18.6,51.4z"/>
			<path class="st0" d="M8.5,51.6C9.5,51.5,9.6,53,8.6,53C7.7,53,7.7,51.7,8.5,51.6z"/>
			<path class="st0" d="M23.7,51.6c0.9-0.1,1.1,1.4,0.1,1.4C22.9,53,22.8,51.7,23.7,51.6z"/>
			<path class="st0" d="M3.5,51.9c0.4-0.1,0.6,0.4,0.4,0.7C3.4,53.1,2.7,52,3.5,51.9z"/>
			<path class="st0" d="M28.8,51.9C28.8,51.9,28.8,51.8,28.8,51.9c0.6,0,0.6,0.9,0,0.9C28.3,52.7,28.2,51.9,28.8,51.9z"/>
			<path class="st0" d="M16,54.1c0.4-0.1,0.8,0.1,0.9,0.5c0.1,0.4-0.3,1-0.9,0.9C15.3,55.4,15.3,54.3,16,54.1z"/>
			<path class="st0" d="M11,54.2c1.2-0.3,1,1.7-0.1,1.2c-0.2-0.1-0.5-0.4-0.3-0.9C10.6,54.4,10.7,54.2,11,54.2z"/>
			<path class="st0" d="M21.1,54.2c1.2-0.3,1,1.7-0.1,1.2c-0.2-0.1-0.5-0.4-0.3-0.9C20.7,54.4,20.8,54.2,21.1,54.2z"/>
			<path class="st0" d="M6.1,54.3c0.7,0,0.5,1.1-0.1,0.9C5.6,55.1,5.5,54.4,6.1,54.3z"/>
			<path class="st0" d="M26.3,54.4c0.7,0,0.5,1.1-0.1,0.9C25.8,55.1,25.7,54.4,26.3,54.4z"/>
			<path class="st0" d="M1,54.6c0.1,0,0.2,0,0.2,0.1c0.2,0.3-0.3,0.4-0.3,0.1C0.9,54.7,0.9,54.7,1,54.6z"/>
			<path class="st0" d="M31.3,54.6c0.1,0,0.2,0,0.2,0.1c0.2,0.3-0.3,0.4-0.3,0.1C31.1,54.8,31.2,54.7,31.3,54.6z"/>
			<path class="st0" d="M13.5,56.8c0.9-0.2,0.8,1.3-0.1,1C13.1,57.7,12.9,56.9,13.5,56.8z"/>
			<path class="st0" d="M18.6,56.8c0.9-0.2,0.8,1.3-0.1,1C18.2,57.7,18,57,18.6,56.8z"/>
			<path class="st0" d="M8.6,56.9c0.4-0.1,0.6,0.4,0.4,0.7C8.4,58.1,7.8,57,8.6,56.9z"/>
			<path class="st0" d="M23.7,56.9c0.4-0.1,0.6,0.4,0.4,0.7C23.6,58.1,22.9,57,23.7,56.9z"/>
			<path class="st0" d="M3.5,57.2c0.1,0,0.2,0,0.2,0.1c0.2,0.3-0.3,0.4-0.3,0.1C3.4,57.3,3.4,57.2,3.5,57.2z"/>
			<path class="st0" d="M28.8,57.2c0.1,0,0.2,0,0.2,0.1c0.2,0.3-0.3,0.4-0.3,0.1C28.6,57.3,28.6,57.2,28.8,57.2z"/>
			<path class="st0" d="M16.1,59.5c0.5-0.1,0.6,0.7,0.1,0.7C15.8,60.3,15.6,59.6,16.1,59.5z"/>
			<path class="st0" d="M11,59.6c0.2-0.1,0.4,0,0.4,0.2c0.1,0.5-0.7,0.6-0.6,0C10.9,59.7,10.9,59.6,11,59.6z"/>
			<path class="st0" d="M21.1,59.6c0.3-0.1,0.4,0,0.4,0.2c0.1,0.5-0.7,0.6-0.6,0C20.9,59.7,21,59.6,21.1,59.6z"/>
			<path class="st0" d="M6.1,59.7c0.1,0,0.2,0,0.2,0.1c0.2,0.3-0.3,0.4-0.3,0.1C5.9,59.8,5.9,59.7,6.1,59.7z"/>
			<path class="st0" d="M26.2,59.7c0.1,0,0.2,0,0.2,0.1c0.2,0.3-0.3,0.4-0.3,0.1C26.1,59.8,26.1,59.7,26.2,59.7z"/>
			<path class="st0" d="M13.6,62.2c0.1,0,0.2,0,0.2,0.1c0.2,0.3-0.3,0.4-0.3,0.1C13.5,62.3,13.5,62.2,13.6,62.2z"/>
			<path class="st0" d="M18.7,62.2c0.1,0,0.2,0,0.2,0.1c0.2,0.3-0.3,0.4-0.3,0.1C18.5,62.3,18.5,62.3,18.7,62.2z"/>
		</g>
	</g>
</g>
</svg>
